%YAML 1.1
%TAG !u! tag:unity3d.com,2011:
--- !u!1 &137506
GameObject:
  m_ObjectHideFlags: 0
  m_PrefabParentObject: {fileID: 0}
  m_PrefabInternal: {fileID: 100100000}
  serializedVersion: 4
  m_Component:
  - 4: {fileID: 455706}
  - 212: {fileID: 21297148}
  - 114: {fileID: 11438526}
  m_Layer: 0
  m_Name: Explosion
  m_TagString: Untagged
  m_Icon: {fileID: 0}
  m_NavMeshLayer: 0
  m_StaticEditorFlags: 0
  m_IsActive: 1
--- !u!4 &455706
Transform:
  m_ObjectHideFlags: 1
  m_PrefabParentObject: {fileID: 0}
  m_PrefabInternal: {fileID: 100100000}
  m_GameObject: {fileID: 137506}
  m_LocalRotation: {x: 0, y: 0, z: 0, w: 1}
  m_LocalPosition: {x: 0, y: 0, z: 0}
  m_LocalScale: {x: 2, y: 2, z: 1}
  m_Children: []
  m_Father: {fileID: 0}
  m_RootOrder: 0
--- !u!114 &11438526
MonoBehaviour:
  m_ObjectHideFlags: 1
  m_PrefabParentObject: {fileID: 0}
  m_PrefabInternal: {fileID: 100100000}
  m_GameObject: {fileID: 137506}
  m_Enabled: 1
  m_EditorHideFlags: 0
  m_Script: {fileID: 11500000, guid: c884a12a5f82e4287a092622c8b3dcd4, type: 3}
  m_Name: 
  m_EditorClassIdentifier: 
  spriteRenderer: {fileID: 0}
  defaultAnimation: Explode
  destroyOnFinish: 1
  animations:
  - name: Explode
    frameTime: 0.05
    frames:
    - sprite: {fileID: 21300000, guid: 9059e9b9780e4b947a6147d30de15dd2, type: 3}
      overrideFrameTime: 0
      frameTime: 0.2
    - sprite: {fileID: 21300002, guid: 9059e9b9780e4b947a6147d30de15dd2, type: 3}
      overrideFrameTime: 0
      frameTime: 0.2
    - sprite: {fileID: 21300004, guid: 9059e9b9780e4b947a6147d30de15dd2, type: 3}
      overrideFrameTime: 0
      frameTime: 0.2
    - sprite: {fileID: 21300006, guid: 9059e9b9780e4b947a6147d30de15dd2, type: 3}
      overrideFrameTime: 0
      frameTime: 0.2
    - sprite: {fileID: 21300008, guid: 9059e9b9780e4b947a6147d30de15dd2, type: 3}
      overrideFrameTime: 0
      frameTime: 0.2
    - sprite: {fileID: 21300010, guid: 9059e9b9780e4b947a6147d30de15dd2, type: 3}
      overrideFrameTime: 0
      frameTime: 0.2
    - sprite: {fileID: 21300012, guid: 9059e9b9780e4b947a6147d30de15dd2, type: 3}
      overrideFrameTime: 0
      frameTime: 0.2
    - sprite: {fileID: 21300014, guid: 9059e9b9780e4b947a6147d30de15dd2, type: 3}
      overrideFrameTime: 0
      frameTime: 0.2
  currentAnimation:
    name: Animation Name
    frameTime: 0.2
    frames: []
--- !u!212 &21297148
SpriteRenderer:
  m_ObjectHideFlags: 1
  m_PrefabParentObject: {fileID: 0}
  m_PrefabInternal: {fileID: 100100000}
  m_GameObject: {fileID: 137506}
  m_Enabled: 1
  m_CastShadows: 0
  m_ReceiveShadows: 0
  m_Materials:
  - {fileID: 10754, guid: 0000000000000000e000000000000000, type: 0}
  m_SubsetIndices: 
  m_StaticBatchRoot: {fileID: 0}
  m_UseLightProbes: 0
  m_ReflectionProbeUsage: 0
  m_ProbeAnchor: {fileID: 0}
  m_ScaleInLightmap: 1
  m_PreserveUVs: 0
  m_IgnoreNormalsForChartDetection: 0
  m_ImportantGI: 0
  m_MinimumChartSize: 4
  m_AutoUVMaxDistance: 0.5
  m_AutoUVMaxAngle: 89
  m_LightmapParameters: {fileID: 0}
  m_SortingLayerID: -543452695
  m_SortingOrder: 0
  m_Sprite: {fileID: 21300000, guid: 9059e9b9780e4b947a6147d30de15dd2, type: 3}
  m_Color: {r: 1, g: 1, b: 1, a: 1}
  m_FlipX: 0
  m_FlipY: 0
--- !u!1001 &100100000
Prefab:
  m_ObjectHideFlags: 1
  serializedVersion: 2
  m_Modification:
    m_TransformParent: {fileID: 0}
    m_Modifications:
    - target: {fileID: 0}
      propertyPath: m_LocalPosition.x
      value: 0
      objectReference: {fileID: 0}
    - target: {fileID: 0}
      propertyPath: m_LocalPosition.y
      value: 0
      objectReference: {fileID: 0}
    - target: {fileID: 0}
      propertyPath: m_Controller
      value: 
      objectReference: {fileID: 9100000, guid: 1eb0739f967db1646a52a0f0dfb9ff35, type: 2}
    - target: {fileID: 0}
      propertyPath: m_Name
      value: Explosion
      objectReference: {fileID: 0}
    - target: {fileID: 0}
      propertyPath: destroyOnFinish
      value: 1
      objectReference: {fileID: 0}
    m_RemovedComponents: []
  m_ParentPrefab: {fileID: 0}
  m_RootGameObject: {fileID: 137506}
  m_IsPrefabParent: 1
