%YAML 1.1
%TAG !u! tag:unity3d.com,2011:
--- !u!21 &2100000
Material:
  serializedVersion: 3
  m_ObjectHideFlags: 0
  m_PrefabParentObject: {fileID: 0}
  m_PrefabInternal: {fileID: 0}
  m_Name: RGBSplit
  m_Shader: {fileID: 4800000, guid: 4efbdf235d0614409af2a974e324661f, type: 3}
  m_ShaderKeywords: []
  m_CustomRenderQueue: -1
  m_SavedProperties:
    serializedVersion: 2
    m_TexEnvs:
      data:
        first:
          name: _MainTex
        second:
          m_Texture: {fileID: 2800000, guid: e35c1e94ba8b345438a64fd01a2c34a3, type: 3}
          m_Scale: {x: 1, y: 1}
          m_Offset: {x: 0, y: 0}
    m_Floats:
      data:
        first:
          name: PixelSnap
        second: 0
      data:
        first:
          name: _RedOffsetX
        second: .389999986
      data:
        first:
          name: _RedOffsetY
        second: -.300000012
      data:
        first:
          name: _GreenOffsetX
        second: -.0199999996
      data:
        first:
          name: _GreenOffsetY
        second: .270000011
      data:
        first:
          name: _BlueOffsetX
        second: .150000006
      data:
        first:
          name: _BlueOffsetY
        second: -.280000001
    m_Colors:
      data:
        first:
          name: _Color
        second: {r: 1, g: 1, b: 1, a: 1}
      data:
        first:
          name: _RedOffset
        second: {r: .800000012, g: .75, b: -1.75999999, a: .939999998}
